ply
format ascii 1.0
comment Created in Blender version 4.1.0
element vertex 296
property float x
property float y
property float z
property float nx
property float ny
property float nz
element face 588
property list uchar uint vertex_indices
end_header
-7.5000005 1e-15 19.000002 0.6863727 0 0.72725004
-7.386059 -1.3023615 19.000002 0.67594284 0.11918689 0.7272522
-7.5000005 1e-15 9.000001 0.72570467 -8.638238e-10 0.68800634
-7.386059 -1.3023615 9.000001 0.7146757 0.12601668 0.68801045
-7.047695 -2.565151 19.000002 0.6449734 0.23475078 0.727256
-7.047695 -2.565151 9.000001 0.68195134 0.2482102 0.6879927
-6.4951906 -3.7500002 19.000002 0.5944057 0.34318015 0.7272614
-6.4951906 -3.7500002 9.000001 0.6284778 0.36284947 0.68800867
-5.7453337 -4.8209076 19.000002 0.5257806 0.44118214 0.72726405
-5.7453337 -4.8209076 9.000001 0.5559323 0.46648267 0.6879922
-4.8209076 -5.7453337 9.000001 0.46647158 0.55591935 0.68801004
-4.8209076 -5.7453337 19.000002 0.4411822 0.52577984 0.7272645
-3.7500002 -6.4951906 19.000002 0.34318084 0.59440583 0.72726107
-3.7500002 -6.4951906 9.000001 0.3628548 0.6284827 0.68800133
-2.565151 -7.047695 9.000001 0.2482051 0.6819379 0.68800807
-2.565151 -7.047695 19.000002 0.23475103 0.64497286 0.72725654
-1.3023615 -7.386059 19.000002 0.11918699 0.6759431 0.727252
-1.3023615 -7.386059 9.000001 0.12601756 0.7146753 0.6880107
-1.4700406e-14 -7.5000005 9.000001 9.3654045e-08 0.7257267 0.687983
-1.4700406e-14 -7.5000005 19.000002 -5.555648e-08 0.68637305 0.7272497
1.3023615 -7.386059 9.000001 -0.12601715 0.714676 0.6880101
1.3023615 -7.386059 19.000002 -0.11918688 0.67594236 0.7272526
2.565151 -7.047695 19.000002 -0.23475109 0.6449732 0.72725624
2.565151 -7.047695 9.000001 -0.24820922 0.681949 0.6879955
3.7500002 -6.4951906 19.000002 -0.34318084 0.59440583 0.72726107
3.7500002 -6.4951906 9.000001 -0.36285746 0.62848735 0.68799573
4.8209076 -5.7453337 9.000001 -0.4664734 0.55592066 0.68800783
4.8209076 -5.7453337 19.000002 -0.44118226 0.5257799 0.7272645
5.7453337 -4.8209076 19.000002 -0.52578044 0.4411822 0.72726417
5.7453337 -4.8209076 9.000001 -0.55591875 0.46647123 0.68801075
6.4951906 -3.7500002 9.000001 -0.62848085 0.3628527 0.68800426
6.4951906 -3.7500002 19.000002 -0.59440523 0.3431801 0.7272619
7.047695 -2.565151 19.000002 -0.6449732 0.23475122 0.72725606
7.047695 -2.565151 9.000001 -0.68194246 0.24820647 0.6880029
7.386059 -1.3023615 19.000002 -0.675943 0.11918734 0.72725195
7.386059 -1.3023615 9.000001 -0.71468973 0.12601873 0.6879955
7.5000005 0 9.000001 -0.72571373 0 0.68799675
7.5000005 0 19.000002 -0.6863727 0 0.72725004
-15.000001 0 4 -0.7239237 0 -0.68988
-15.000001 0 19.000002 -0.7239263 0 0.6898774
-14.815326 2.3465173 19.000002 -0.71502197 0.113248006 0.6898684
-14.815326 2.3465173 4 -0.7150125 0.11324678 -0.6898785
-14.265849 4.635255 4 -0.68849784 0.22370686 -0.68987393
-14.265849 4.635255 19.000002 -0.68850374 0.2237081 0.68986756
-13.365098 6.809858 4 -0.64502853 0.32865885 -0.6898707
-13.365098 6.809858 19.000002 -0.6450322 0.3286602 0.68986666
-12.135255 8.816779 19.000002 -0.58567476 0.4255178 0.6898693
-12.135255 8.816779 4 -0.58567804 0.42551997 -0.68986523
-10.606602 10.606602 4 -0.51190084 0.51190096 -0.6898659
-10.606602 10.606602 19.000002 -0.5118996 0.5118993 0.68986803
-8.816779 12.135255 4 -0.4255184 0.5856759 -0.6898679
-8.816779 12.135255 19.000002 -0.4255194 0.5856767 0.6898668
-6.809858 13.365098 19.000002 -0.32865915 0.64502984 0.6898693
-6.809858 13.365098 4 -0.32865983 0.6450309 -0.6898681
-4.635255 14.265849 4 -0.22370638 0.68849796 -0.68987393
-4.635255 14.265849 19.000002 -0.22370863 0.6885036 0.6898675
-2.3465173 14.815326 4 -0.1132463 0.7150112 -0.68987983
-2.3465173 14.815326 19.000002 -0.11324864 0.71502304 0.68986714
9.184852e-16 15.000001 4 2.1010484e-07 0.72392493 -0.68987876
9.184852e-16 15.000001 19.000002 -2.1053539e-07 0.72392493 0.68987876
2.3465173 14.815326 4 0.11324632 0.71500987 -0.6898812
2.3465173 14.815326 19.000002 0.11324864 0.7150244 0.6898659
4.635255 14.265849 19.000002 0.22370811 0.6885025 0.6898688
4.635255 14.265849 4 0.22370699 0.68849903 -0.68987256
6.809858 13.365098 4 0.3286586 0.64502865 -0.6898708
6.809858 13.365098 19.000002 0.3286604 0.6450321 0.68986666
8.816779 12.135255 19.000002 0.4255176 0.5856749 0.68986934
8.816779 12.135255 4 0.4255202 0.58567774 -0.68986535
10.606602 10.606602 4 0.5119011 0.5119008 -0.6898659
10.606602 10.606602 19.000002 0.51189935 0.51189953 0.6898681
12.135255 8.816779 4 0.5856768 0.42551938 -0.68986654
12.135255 8.816779 19.000002 0.58567595 0.42551842 0.689868
13.365098 6.809858 4 0.64502984 0.328659 -0.6898694
13.365098 6.809858 19.000002 0.64503086 0.32866007 0.68986803
14.265849 4.635255 4 0.6884967 0.22370604 -0.68987525
14.265849 4.635255 19.000002 0.6885049 0.22370894 0.68986624
14.815326 2.3465173 19.000002 0.715022 0.11324801 0.68986845
14.815326 2.3465173 4 0.7150125 0.11324678 -0.6898785
15.000001 2e-15 4 0.7239237 0 -0.68988
15.000001 2e-15 19.000002 0.7239263 0 0.6898774
-12.310097 2.1706023 1 -0.7146746 0.1260153 -0.68801194
-12.5 0 4 -0.6863495 1.0653267e-06 -0.72727185
-12.310097 2.1706023 4 -0.6759308 0.11918595 -0.7272636
-12.5 0 1 -0.7257136 -1.1333369e-06 -0.68799686
-11.746158 4.2752523 1 -0.6819614 0.2482126 -0.6879819
-11.746158 4.2752523 4 -0.64496636 0.2347494 -0.7272628
-10.825318 6.25 1 -0.62848705 0.3628559 -0.68799686
-10.825318 6.25 4 -0.59441084 0.34318396 -0.7272554
-9.575556 8.034845 1 -0.5559185 0.4664699 -0.6880118
-9.575556 8.034845 4 -0.52579135 0.44119257 -0.7272501
-8.034845 9.575556 1 -0.4664895 0.5559394 -0.68798184
-8.034845 9.575556 4 -0.4411912 0.5257924 -0.7272501
-6.25 10.825318 1 -0.36285034 0.6284737 -0.6880119
-6.25 10.825318 4 -0.34318274 0.5944116 -0.7272554
-4.2752523 11.746158 1 -0.24821025 0.68195224 -0.6879919
-4.2752523 11.746158 4 -0.23474677 0.6449619 -0.72726756
-2.1706023 12.310097 4 -0.119185805 0.67593586 -0.72725886
-2.1706023 12.310097 1 -0.12601805 0.7146837 -0.688002
7.654043e-16 12.5 1 0 0.7257326 -0.6879769
7.654043e-16 12.5 4 7.892642e-09 0.6863444 -0.7272767
2.1706023 12.310097 4 0.11918586 0.6759359 -0.7272588
2.1706023 12.310097 1 0.12601557 0.71466964 -0.68801695
4.2752523 11.746158 1 0.24820775 0.68194807 -0.68799686
4.2752523 11.746158 4 0.23474938 0.64496636 -0.7272628
6.25 10.825318 1 0.36285603 0.62848693 -0.68799686
6.25 10.825318 4 0.34318408 0.59441084 -0.7272554
8.034845 9.575556 1 0.46648833 0.5559404 -0.6879818
8.034845 9.575556 4 0.44119236 0.52579147 -0.7272501
9.575556 8.034845 1 0.55593264 0.46648288 -0.6879918
9.575556 8.034845 4 0.5257879 0.44118866 -0.7272548
10.825318 6.25 4 0.5944156 0.34318593 -0.7272506
10.825318 6.25 1 0.62848246 0.36285406 -0.68800193
11.746158 4.2752523 1 0.6819474 0.24820942 -0.68799686
11.746158 4.2752523 4 0.6449669 0.23474781 -0.72726285
12.310097 2.1706023 1 0.7146742 0.12601751 -0.6880119
12.310097 2.1706023 4 0.67593116 0.119183846 -0.7272636
12.5 2e-15 1 0.7257279 1.1333592e-06 -0.68798196
12.5 2e-15 4 0.6863495 -1.0669606e-06 -0.72727185
-6.893655 1.2155372 -5.0000005 -0.7146827 0.1260184 -0.6880029
-7 0 1 -0.6863697 -7.353124e-07 -0.72725284
-6.893655 1.2155372 1 -0.67594475 0.11918636 -0.7272505
-7 0 -5.0000005 -0.72569805 7.757178e-07 -0.6880134
-6.577849 2.3941412 -5.0000005 -0.6819346 0.24820368 -0.6880117
-6.577849 2.3941412 1 -0.6449782 0.23475268 -0.7272512
-6.062178 3.5 1 -0.59440964 0.34318265 -0.72725713
-6.062178 3.5 -5.0000005 -0.6284778 0.36285308 -0.6880067
-5.362311 4.499513 -5.0000005 -0.5559175 0.46647006 -0.68801266
-5.362311 4.499513 1 -0.525792 0.4411911 -0.72725046
-4.499513 5.362311 -5.0000005 -0.46646798 0.55591595 -0.6880152
-4.499513 5.362311 1 -0.44118887 0.52578723 -0.7272553
-3.5 6.062178 -5.0000005 -0.36285716 0.6284879 -0.6879955
-3.5 6.062178 1 -0.34318683 0.5944152 -0.7272505
-2.3941412 6.577849 -5.0000005 -0.24820681 0.68194443 -0.68800086
-2.3941412 6.577849 1 -0.23475295 0.644976 -0.72725296
-1.2155372 6.893655 -5.0000005 -0.12601526 0.7146732 -0.6880132
-1.2155372 6.893655 1 -0.119187385 0.675942 -0.72725296
4.286264e-16 7 -5.0000005 0 0.725692 -0.68801975
4.286264e-16 7 1 0 0.68637156 -0.7272511
1.2155372 6.893655 1 0.119186334 0.6759402 -0.72725475
1.2155372 6.893655 -5.0000005 0.12601817 0.7146852 -0.68800044
2.3941412 6.577849 -5.0000005 0.2482036 0.6819311 -0.6880152
2.3941412 6.577849 1 0.2347516 0.6449766 -0.72725296
3.5 6.062178 -5.0000005 0.36286348 0.62849593 -0.6879847
3.5 6.062178 1 0.34318444 0.5944137 -0.7272529
4.499513 5.362311 -5.0000005 0.46648172 0.55593 -0.6879946
4.499513 5.362311 1 0.44118777 0.52578807 -0.72725517
5.362311 4.499513 -5.0000005 0.5559176 0.46646747 -0.6880144
5.362311 4.499513 1 0.5257891 0.44119054 -0.72725284
6.062178 3.5 -5.0000005 0.62847227 0.36284903 -0.68801385
6.062178 3.5 1 0.59441304 0.34318548 -0.7272529
6.577849 2.3941412 -5.0000005 0.6819321 0.2482028 -0.68801445
6.577849 2.3941412 1 0.64498067 0.23475356 -0.7272488
6.893655 1.2155372 1 0.6759402 0.1191863 -0.72725475
6.893655 1.2155372 -5.0000005 0.7146875 0.12601855 -0.6879978
7 1e-15 -5.0000005 0.72569615 -7.739879e-07 -0.68801534
7 1e-15 1 0.68636715 7.3530964e-07 -0.72725517
6.893655 -1.2155372 -5.0000005 0.71468943 -0.1260188 -0.6879958
6.893655 -1.2155372 1 0.6759465 -0.11918742 -0.7272488
6.577849 -2.3941412 1 0.6449745 -0.23475164 -0.72725475
6.577849 -2.3941412 -5.0000005 0.68193537 -0.24820395 -0.68801075
6.062178 -3.5 -5.0000005 0.6284754 -0.3628514 -0.68800974
6.062178 -3.5 1 0.5944137 -0.34318444 -0.7272529
5.362311 -4.499513 -5.0000005 0.5559138 -0.46646532 -0.68801874
5.362311 -4.499513 1 0.525791 -0.44119126 -0.72725105
4.499513 -5.362311 1 0.44118866 -0.5257882 -0.7272546
4.499513 -5.362311 -5.0000005 0.46647552 -0.55592394 -0.6880038
3.5 -6.062178 -5.0000005 0.3628598 -0.62849265 -0.6879896
3.5 -6.062178 1 0.34318563 -0.594413 -0.72725284
2.3941412 -6.577849 -5.0000005 0.24820143 -0.6819274 -0.68801963
2.3941412 -6.577849 1 0.23475385 -0.64498055 -0.7272488
1.2155372 -6.893655 1 0.11918589 -0.6759377 -0.72725713
1.2155372 -6.893655 -5.0000005 0.1260168 -0.71467745 -0.68800867
-1.3720378e-14 -7 -5.0000005 -7.77448e-07 -0.7257006 -0.68801063
-1.3720378e-14 -7 1 7.263784e-07 -0.6863696 -0.72725284
-1.2155372 -6.893655 -5.0000005 -0.1260204 -0.7146933 -0.6879915
-1.2155372 -6.893655 1 -0.11918595 -0.6759422 -0.72725296
-2.3941412 -6.577849 -5.0000005 -0.24820419 -0.681931 -0.68801516
-2.3941412 -6.577849 1 -0.23475157 -0.6449766 -0.72725296
-3.5 -6.062178 -5.0000005 -0.36284727 -0.6284692 -0.68801767
-3.5 -6.062178 1 -0.34318718 -0.5944173 -0.7272487
-4.499513 -5.362311 1 -0.44118705 -0.5257863 -0.72725713
-4.499513 -5.362311 -5.0000005 -0.46647418 -0.55592215 -0.6880061
-5.362311 -4.499513 -5.0000005 -0.5559317 -0.46648133 -0.6879936
-5.362311 -4.499513 1 -0.5257871 -0.44118893 -0.7272553
-6.062178 -3.5 -5.0000005 -0.6284716 -0.36284775 -0.6880152
-6.062178 -3.5 1 -0.5944131 -0.3431855 -0.7272529
-6.577849 -2.3941412 -5.0000005 -0.6819343 -0.2482031 -0.68801224
-6.577849 -2.3941412 1 -0.6449762 -0.2347527 -0.7272529
-6.893655 -1.2155372 -5.0000005 -0.71466905 -0.12601529 -0.6880176
-6.893655 -1.2155372 1 -0.675942 -0.11918737 -0.72725296
12.310097 -2.1706023 1 0.71468854 -0.12601778 -0.68799686
12.310097 -2.1706023 4 0.6759308 -0.11918595 -0.72726357
11.746158 -4.2752523 1 0.6819347 -0.24820289 -0.68801194
11.746158 -4.2752523 4 0.64496636 -0.2347494 -0.7272628
10.825318 -6.25 1 0.6284906 -0.36285916 -0.6879918
10.825318 -6.25 4 0.59440696 -0.34318063 -0.7272602
9.575556 -8.034845 4 0.52579576 -0.44119504 -0.7272452
9.575556 -8.034845 1 0.55593604 -0.46648592 -0.6879869
8.034845 -9.575556 1 0.46647114 -0.5559175 -0.68801194
8.034845 -9.575556 4 0.44119126 -0.5257924 -0.7272501
6.25 -10.825318 1 0.3628575 -0.6284861 -0.68799686
6.25 -10.825318 4 0.34318277 -0.5944116 -0.7272554
4.2752523 -11.746158 1 0.24820942 -0.6819474 -0.687997
4.2752523 -11.746158 4 0.23474781 -0.6449669 -0.7272628
2.1706023 -12.310097 1 0.12601976 -0.71468824 -0.68799686
2.1706023 -12.310097 4 0.11918413 -0.67593104 -0.72726357
-2.4500675e-14 -12.5 1 -3.7731125e-09 -0.72571844 -0.68799186
-2.4500675e-14 -12.5 4 1.0099834e-08 -0.6863444 -0.7272767
-2.1706023 -12.310097 4 -0.11918586 -0.6759359 -0.72725886
-2.1706023 -12.310097 1 -0.12601803 -0.7146836 -0.688002
-4.2752523 -11.746158 1 -0.24820775 -0.68194807 -0.68799686
-4.2752523 -11.746158 4 -0.23474935 -0.64496636 -0.7272628
-6.25 -10.825318 1 -0.36285603 -0.62848693 -0.68799686
-6.25 -10.825318 4 -0.34318405 -0.59441084 -0.7272554
-8.034845 -9.575556 1 -0.46647915 -0.5559295 -0.68799686
-8.034845 -9.575556 4 -0.4411923 -0.52579147 -0.7272501
-9.575556 -8.034845 1 -0.55593926 -0.46648967 -0.68798184
-9.575556 -8.034845 4 -0.5257924 -0.4411912 -0.7272501
-10.825318 -6.25 1 -0.62848616 -0.3628573 -0.68799686
-10.825318 -6.25 4 -0.59441173 -0.34318262 -0.7272554
-11.746158 -4.2752523 1 -0.6819474 -0.24820942 -0.68799686
-11.746158 -4.2752523 4 -0.6449669 -0.23474781 -0.7272628
-12.310097 -2.1706023 1 -0.7146882 -0.12601997 -0.6879969
-12.310097 -2.1706023 4 -0.67593116 -0.119183846 -0.72726357
14.815326 -2.3465173 19.000002 0.7150221 -0.113248006 0.6898684
14.815326 -2.3465173 4 0.7150124 -0.11324677 -0.68987846
14.265849 -4.635255 4 0.68849784 -0.22370686 -0.689874
14.265849 -4.635255 19.000002 0.6885038 -0.2237081 0.68986756
13.365098 -6.809858 4 0.64502853 -0.32865885 -0.6898708
13.365098 -6.809858 19.000002 0.6450321 -0.32866025 0.6898667
12.135255 -8.816779 19.000002 0.58567476 -0.4255178 0.6898693
12.135255 -8.816779 4 0.58567804 -0.42551997 -0.68986523
10.606602 -10.606602 4 0.51190084 -0.51190096 -0.6898659
10.606602 -10.606602 19.000002 0.5118996 -0.5118993 0.68986803
8.816779 -12.135255 4 0.42551842 -0.5856759 -0.6898679
8.816779 -12.135255 19.000002 0.4255194 -0.5856767 0.6898668
6.809858 -13.365098 19.000002 0.32865912 -0.64502984 0.6898693
6.809858 -13.365098 4 0.32865983 -0.64503086 -0.6898681
4.635255 -14.265849 4 0.22370644 -0.68849796 -0.68987393
4.635255 -14.265849 19.000002 0.22370847 -0.6885037 0.68986756
2.3465173 -14.815326 4 0.11324629 -0.7150112 -0.68987983
2.3465173 -14.815326 19.000002 0.11324836 -0.7150231 0.68986726
-2.7554556e-15 -15.000001 4 -1.9005043e-07 -0.72392493 -0.68987876
-2.7554556e-15 -15.000001 19.000002 2.1053538e-07 -0.72392493 0.68987876
-2.3465173 -14.815326 4 -0.11324632 -0.71500987 -0.6898812
-2.3465173 -14.815326 19.000002 -0.11324835 -0.7150244 0.6898658
-4.635255 -14.265849 19.000002 -0.22370793 -0.6885025 0.6898688
-4.635255 -14.265849 4 -0.22370695 -0.68849903 -0.68987256
-6.809858 -13.365098 4 -0.32865858 -0.64502865 -0.6898707
-6.809858 -13.365098 19.000002 -0.32866037 -0.6450321 0.68986666
-8.816779 -12.135255 19.000002 -0.4255176 -0.5856749 0.68986934
-8.816779 -12.135255 4 -0.42552018 -0.58567774 -0.68986535
-10.606602 -10.606602 4 -0.5119011 -0.5119008 -0.6898659
-10.606602 -10.606602 19.000002 -0.51189935 -0.51189953 0.6898681
-12.135255 -8.816779 4 -0.5856768 -0.42551938 -0.68986654
-12.135255 -8.816779 19.000002 -0.5856759 -0.42551842 0.689868
-13.365098 -6.809858 4 -0.64502984 -0.328659 -0.68986934
-13.365098 -6.809858 19.000002 -0.64503086 -0.32866007 0.68986803
-14.265849 -4.635255 4 -0.6884967 -0.22370604 -0.68987525
-14.265849 -4.635255 19.000002 -0.6885048 -0.22370894 0.68986624
-14.815326 -2.3465173 19.000002 -0.715022 -0.11324801 0.6898684
-14.815326 -2.3465173 4 -0.7150124 -0.11324677 -0.68987846
-7.386059 1.3023615 19.000002 0.67594284 -0.11918692 0.7272523
-7.047695 2.565151 19.000002 0.6449736 -0.23475099 0.7272558
-6.4951906 3.7500002 19.000002 0.5944053 -0.34318036 0.72726166
-5.7453337 4.8209076 19.000002 0.52578 -0.4411821 0.7272645
-4.8209076 5.7453337 19.000002 0.44118237 -0.5257802 0.7272643
-3.7500002 6.4951906 19.000002 0.34318063 -0.5944056 0.72726136
-2.565151 7.047695 19.000002 0.23475112 -0.6449732 0.72725624
-1.3023615 7.386059 19.000002 0.119186476 -0.6759424 0.7272527
4.592426e-16 7.5000005 19.000002 5.555648e-08 -0.68637305 0.7272496
7.386059 1.3023615 19.000002 -0.67594284 -0.11918691 0.72725224
1.3023615 7.386059 19.000002 -0.119186476 -0.6759428 0.72725236
7.047695 2.565151 19.000002 -0.6449734 -0.2347508 0.72725606
2.565151 7.047695 19.000002 -0.2347512 -0.6449735 0.7272558
3.7500002 6.4951906 19.000002 -0.34318066 -0.59440553 0.72726136
6.4951906 3.7500002 19.000002 -0.59440553 -0.34318024 0.7272616
5.7453337 4.8209076 19.000002 -0.5257804 -0.44118223 0.7272642
4.8209076 5.7453337 19.000002 -0.44118208 -0.5257799 0.72726464
7.386059 1.3023615 9.000001 -0.7146784 -0.1260169 0.68800765
7.047695 2.565151 9.000001 -0.6819356 -0.24820447 0.6880105
6.4951906 3.7500002 9.000001 -0.6284799 -0.36285302 0.68800485
5.7453337 4.8209076 9.000001 -0.55592245 -0.46647438 0.68800575
4.8209076 5.7453337 9.000001 -0.46647862 -0.5559277 0.68799853
3.7500002 6.4951906 9.000001 -0.3628503 -0.62847537 0.6880105
2.565151 7.047695 9.000001 -0.24820623 -0.68194014 0.6880052
1.3023615 7.386059 9.000001 -0.12601714 -0.71467566 0.6880104
4.592426e-16 7.5000005 9.000001 -1.3744426e-07 -0.7257194 0.6879909
-1.3023615 7.386059 9.000001 0.12601766 -0.7146759 0.68801004
-2.565151 7.047695 9.000001 0.24820894 -0.68194926 0.6879953
-3.7500002 6.4951906 9.000001 0.3628575 -0.6284876 0.68799543
-4.8209076 5.7453337 9.000001 0.4664727 -0.55592054 0.6880084
-5.7453337 4.8209076 9.000001 0.5559191 -0.46647146 0.68801045
-6.4951906 3.7500002 9.000001 0.62848014 -0.3628526 0.6880049
-7.047695 2.565151 9.000001 0.6819419 -0.24820685 0.6880034
-7.386059 1.3023615 9.000001 0.7146968 -0.12602034 0.6879878
3 0 1 2
3 2 1 3
3 3 4 5
3 1 4 3
3 5 6 7
3 4 6 5
3 7 8 9
3 9 8 10
3 6 8 7
3 8 11 10
3 10 12 13
3 13 12 14
3 11 12 10
3 12 15 14
3 14 16 17
3 17 16 18
3 15 16 14
3 18 19 20
3 16 19 18
3 19 21 20
3 20 22 23
3 21 22 20
3 23 24 25
3 25 24 26
3 22 24 23
3 24 27 26
3 26 28 29
3 29 28 30
3 27 28 26
3 28 31 30
3 31 32 30
3 30 32 33
3 32 34 33
3 33 34 35
3 35 34 36
3 34 37 36
3 38 39 40
3 41 38 40
3 42 40 43
3 42 41 40
3 44 45 46
3 44 43 45
3 44 42 43
3 47 44 46
3 48 46 49
3 48 47 46
3 50 51 52
3 50 49 51
3 50 48 49
3 53 50 52
3 54 52 55
3 54 53 52
3 56 55 57
3 56 54 55
3 58 57 59
3 58 56 57
3 60 61 62
3 60 59 61
3 60 58 59
3 63 60 62
3 64 65 66
3 64 62 65
3 64 63 62
3 67 64 66
3 68 67 66
3 68 66 69
3 70 69 71
3 70 68 69
3 72 71 73
3 72 70 71
3 74 75 76
3 74 73 75
3 74 72 73
3 77 74 76
3 78 76 79
3 78 77 76
3 80 81 82
3 80 83 81
3 84 82 85
3 84 80 82
3 86 85 87
3 86 84 85
3 88 87 89
3 88 86 87
3 90 89 91
3 90 88 89
3 92 91 93
3 92 90 91
3 94 95 96
3 94 93 95
3 94 92 93
3 97 94 96
3 98 99 100
3 98 96 99
3 98 97 96
3 101 98 100
3 102 100 103
3 102 101 100
3 104 103 105
3 104 102 103
3 106 105 107
3 106 104 105
3 108 109 110
3 108 107 109
3 108 106 107
3 111 108 110
3 112 110 113
3 112 111 110
3 114 113 115
3 114 112 113
3 116 115 117
3 116 114 115
3 118 119 120
3 118 121 119
3 122 123 124
3 122 120 123
3 122 118 120
3 125 122 124
3 126 124 127
3 126 125 124
3 128 127 129
3 128 126 127
3 130 129 131
3 130 128 129
3 132 131 133
3 132 130 131
3 134 133 135
3 134 132 133
3 136 137 138
3 136 135 137
3 136 134 135
3 139 136 138
3 140 138 141
3 140 139 138
3 142 141 143
3 142 140 141
3 144 143 145
3 144 142 143
3 146 145 147
3 146 144 145
3 148 146 147
3 148 147 149
3 150 151 152
3 150 149 151
3 150 148 149
3 153 150 152
3 154 152 155
3 154 153 152
3 156 154 155
3 156 157 158
3 156 155 157
3 159 156 158
3 160 158 161
3 160 159 158
3 162 163 164
3 162 161 163
3 162 160 161
3 165 162 164
3 166 164 167
3 166 165 164
3 168 169 170
3 168 167 169
3 168 166 167
3 171 168 170
3 172 170 173
3 172 171 170
3 174 173 175
3 174 172 173
3 176 175 177
3 176 174 175
3 178 179 180
3 178 177 179
3 178 176 177
3 181 178 180
3 182 180 183
3 182 181 180
3 184 182 183
3 184 183 185
3 186 184 185
3 186 185 187
3 188 187 189
3 188 186 187
3 121 189 119
3 121 188 189
3 184 186 182
3 182 174 181
3 181 174 178
3 178 174 176
3 188 121 186
3 121 118 186
3 174 166 172
3 172 166 171
3 171 166 168
3 186 166 182
3 182 166 174
3 118 166 186
3 165 160 162
3 128 130 126
3 126 130 125
3 125 130 122
3 122 130 118
3 160 156 159
3 165 156 160
3 136 139 134
3 134 139 132
3 156 153 154
3 140 142 139
3 132 142 130
3 166 142 165
3 130 142 118
3 118 142 166
3 165 142 156
3 139 142 132
3 153 144 150
3 150 144 148
3 148 144 146
3 156 144 153
3 142 144 156
3 190 116 117
3 190 117 191
3 192 191 193
3 192 190 191
3 194 195 196
3 194 193 195
3 194 192 193
3 197 194 196
3 198 196 199
3 198 197 196
3 200 199 201
3 200 198 199
3 202 201 203
3 202 200 201
3 204 203 205
3 204 202 203
3 206 207 208
3 206 205 207
3 206 204 205
3 209 206 208
3 210 208 211
3 210 209 208
3 212 211 213
3 212 210 211
3 214 213 215
3 214 212 213
3 216 215 217
3 216 214 215
3 218 216 217
3 218 217 219
3 220 218 219
3 220 219 221
3 222 221 223
3 222 220 221
3 83 223 81
3 83 222 223
3 216 180 214
3 183 180 216
3 214 179 212
3 180 179 214
3 218 185 216
3 216 185 183
3 212 177 210
3 179 177 212
3 220 187 218
3 218 187 185
3 177 175 210
3 210 175 209
3 222 189 220
3 220 189 187
3 209 173 206
3 175 173 209
3 83 119 222
3 222 119 189
3 173 170 206
3 206 170 204
3 84 120 80
3 80 120 83
3 83 120 119
3 170 169 204
3 204 169 202
3 84 123 120
3 202 167 200
3 169 167 202
3 86 124 84
3 84 124 123
3 200 164 198
3 167 164 200
3 88 127 86
3 86 127 124
3 164 197 198
3 163 197 164
3 88 90 127
3 127 90 129
3 163 161 197
3 90 131 129
3 161 194 197
3 158 194 161
3 90 92 131
3 158 192 194
3 131 94 133
3 92 94 131
3 157 190 158
3 158 190 192
3 133 97 135
3 94 97 133
3 137 98 138
3 135 98 137
3 97 98 135
3 152 116 155
3 157 116 190
3 155 116 157
3 98 101 138
3 152 114 116
3 101 102 138
3 138 102 141
3 151 112 152
3 152 112 114
3 102 104 141
3 141 104 143
3 151 111 112
3 149 111 151
3 149 108 111
3 147 108 149
3 104 106 143
3 147 106 108
3 145 106 147
3 143 106 145
3 78 79 224
3 225 78 224
3 226 224 227
3 226 225 224
3 228 229 230
3 228 227 229
3 228 226 227
3 231 228 230
3 232 230 233
3 232 231 230
3 234 235 236
3 234 233 235
3 234 232 233
3 237 234 236
3 238 236 239
3 238 237 236
3 240 239 241
3 240 238 239
3 242 241 243
3 242 240 241
3 244 245 246
3 244 243 245
3 244 242 243
3 247 244 246
3 248 249 250
3 248 246 249
3 248 247 246
3 251 248 250
3 252 251 250
3 252 250 253
3 254 253 255
3 254 252 253
3 256 255 257
3 256 254 255
3 258 259 260
3 258 257 259
3 258 256 257
3 261 258 260
3 38 260 39
3 38 261 260
3 11 253 250
3 8 255 253
3 8 253 11
3 12 250 249
3 12 11 250
3 6 257 255
3 6 255 8
3 15 12 249
3 15 249 246
3 4 259 257
3 4 257 6
3 16 246 245
3 16 15 246
3 1 260 259
3 1 259 4
3 19 245 243
3 19 243 241
3 19 16 245
3 0 39 260
3 0 260 1
3 0 40 39
3 21 19 241
3 21 241 239
3 262 40 0
3 262 43 40
3 22 239 236
3 22 21 239
3 263 43 262
3 263 45 43
3 24 236 235
3 24 22 236
3 264 46 45
3 264 45 263
3 27 24 235
3 265 46 264
3 233 27 235
3 49 46 265
3 28 27 233
3 266 49 265
3 230 28 233
3 230 31 28
3 51 266 267
3 51 49 266
3 229 31 230
3 229 32 31
3 52 267 268
3 52 51 267
3 227 32 229
3 227 34 32
3 55 268 269
3 55 52 268
3 224 37 34
3 224 34 227
3 57 269 270
3 57 55 269
3 79 37 224
3 59 57 270
3 76 271 37
3 76 37 79
3 61 59 270
3 61 270 272
3 75 271 76
3 75 273 271
3 62 61 272
3 62 272 274
3 65 62 274
3 65 274 275
3 73 276 273
3 73 273 75
3 71 276 73
3 71 277 276
3 66 65 275
3 66 275 278
3 69 66 278
3 69 278 277
3 69 277 71
3 252 215 251
3 254 217 252
3 252 217 215
3 251 213 248
3 215 213 251
3 256 219 254
3 254 219 217
3 248 211 247
3 213 211 248
3 256 221 219
3 258 221 256
3 211 208 247
3 247 208 244
3 258 223 221
3 261 223 258
3 208 207 244
3 244 207 242
3 261 81 223
3 38 81 261
3 207 240 242
3 38 41 81
3 207 205 240
3 41 82 81
3 205 238 240
3 41 42 82
3 205 203 238
3 42 85 82
3 203 237 238
3 42 44 85
3 203 201 237
3 44 87 85
3 201 234 237
3 44 47 87
3 201 199 234
3 47 89 87
3 199 232 234
3 47 48 89
3 199 196 232
3 48 91 89
3 196 231 232
3 48 50 91
3 196 195 231
3 50 93 91
3 195 228 231
3 50 53 93
3 195 193 228
3 53 95 93
3 193 226 228
3 53 54 95
3 193 191 226
3 54 96 95
3 191 225 226
3 54 56 96
3 191 117 225
3 56 99 96
3 56 58 99
3 117 78 225
3 99 60 100
3 58 60 99
3 115 77 117
3 117 77 78
3 115 74 77
3 113 74 115
3 60 63 100
3 100 63 103
3 63 64 103
3 103 64 105
3 110 72 113
3 113 72 74
3 110 70 72
3 109 70 110
3 64 67 105
3 105 67 107
3 109 68 70
3 67 68 107
3 107 68 109
3 37 271 36
3 36 271 279
3 279 273 280
3 271 273 279
3 280 276 281
3 273 276 280
3 281 277 282
3 282 277 283
3 276 277 281
3 277 278 283
3 283 275 284
3 278 275 283
3 284 274 285
3 285 274 286
3 275 274 284
3 286 272 287
3 274 272 286
3 287 270 288
3 272 270 287
3 270 269 288
3 288 268 289
3 269 268 288
3 289 267 290
3 268 267 289
3 290 266 291
3 267 266 290
3 291 265 292
3 266 265 291
3 265 264 292
3 292 264 293
3 264 263 293
3 293 263 294
3 294 263 295
3 295 262 2
3 263 262 295
3 262 0 2
3 13 9 10
3 5 7 9
3 18 13 14
3 18 14 17
3 18 9 13
3 18 5 9
3 2 3 5
3 23 18 20
3 291 292 293
3 30 25 26
3 30 26 29
3 290 293 294
3 290 294 295
3 290 291 293
3 33 25 30
3 289 290 295
3 35 23 25
3 35 25 33
3 287 288 289
3 287 295 2
3 287 2 5
3 287 289 295
3 36 23 35
3 285 286 287
3 281 36 279
3 281 279 280
3 282 36 281
3 282 23 36
3 283 284 285
3 283 23 282
3 283 5 18
3 283 18 23
3 283 287 5
3 283 285 287
